{
    "services": [
        {
            "serviceId": "S01",
            "service": "Hair Cut & Styling",
            "serviceContent": [
                {
                    "id": "101",
                    "name": "Beard Styling"
                },
                {
                    "id": "102",
                    "name": "Blow Dry"
                },
                {
                    "id": "103",
                    "name": "Hair Colour"
                },
                {
                    "id": "104",
                    "name": "Hair Consulting & Massages"
                },
                {
                    "id": "105",
                    "name": "Hair Cut"
                },
                {
                    "id": "106",
                    "name": "Hair Extentions"
                },
                {
                    "id": "107",
                    "name": "Hair Spa"
                },
                {
                    "id": "108",
                    "name": "Hair Styling"
                },
                {
                    "id": "109",
                    "name": "Hair Treatments"
                },
                {
                    "id": "110",
                    "name": "Straightening/Perm"
                },
                {
                    "id": "111",
                    "name": "Hair Wash"
                }
            ]
        },
        {
            "serviceId": "S02",
            "service": "Face",
            "serviceContent": [
                {
                    "id": "201",
                    "name": "Bleach"
                },
                {
                    "id": "202",
                    "name": "Eyebrow/Eyelash"
                },
                {
                    "id": "203",
                    "name": "Facials"
                },
                {
                    "id": "204",
                    "name": "Laser Treatments"
                },
                {
                    "id": "205",
                    "name": "Skin Treatments"
                },
                {
                    "id": "206",
                    "name": "Skincare Consultations"
                },
                {
                    "id": "207",
                    "name": "Threading"
                },
                {
                    "id": "208",
                    "name": "Waxing"
                }
            ]
        },
        {
            "serviceId": "S03",
            "service": "Hands & Feet and Nails",
            "serviceContent": [
                {
                    "id": "301",
                    "name": "Fish Pedicures"
                },
                {
                    "id": "302",
                    "name": "Manicure"
                },
                {
                    "id": "303",
                    "name": "Nails care"
                },
                {
                    "id": "304",
                    "name": "Nail Extension/ Bar"
                },
                {
                    "id": "305",
                    "name": "Pedicure"
                },
                {
                    "id": "306",
                    "name": "Cleanings"
                }
            ]
        },
        {
            "serviceId": "S04",
            "service": "Treatments",
            "serviceContent": [
                {
                    "id": "401",
                    "name": "Botox Treatment"
                },
                {
                    "id": "402",
                    "name": "Cosmetic Surgery"
                },
                {
                    "id": "403",
                    "name": "Hair Transplant"
                },
                {
                    "id": "404",
                    "name": "Laser Hair Removal"
                },
                {
                    "id": "405",
                    "name": "Tanning"
                },
                {
                    "id": "406",
                    "name": "Slimming Centres/ Weight Loss"
                },
                {
                    "id": "407",
                    "name": "Weight gain"
                },
                {
                    "id": "408",
                    "name": "Anti-Ageing"
                },
                {
                    "id": "409",
                    "name": "Acne Spot Treatment"
                },
                {
                    "id": "410",
                    "name": "Liposuction"
                },
                {
                    "id": "411",
                    "name": "Therapies & Other treatments"
                }
            ]
        },
        {
            "serviceId": "S05",
            "service": "Body Care",
            "serviceContent": [
                {
                    "id": "501",
                    "name": "Waxing"
                },
                {
                    "id": "502",
                    "name": "Body Polishing"
                },
                {
                    "id": "503",
                    "name": "Body Toning"
                },
                {
                    "id": "504",
                    "name": "Massage"
                },
                {
                    "id": "505",
                    "name": "Body wrap"
                },
                {
                    "id": "506",
                    "name": "Bleach"
                }
            ]
        },
        {
            "serviceId": "S06",
            "service": "Fitness",
            "serviceContent": [
                {
                    "id": "601",
                    "name": "Gym"
                },
                {
                    "id": "602",
                    "name": "Yoga/Pilates"
                },
                {
                    "id": "603",
                    "name": "Workout Classes"
                },
                {
                    "id": "604",
                    "name": "Dance"
                },
                {
                    "id": "605",
                    "name": "Dietician"
                },
                {
                    "id": "606",
                    "name": "Weight Control"
                },
                {
                    "id": "607",
                    "name": "Perosnal Trainer"
                }
            ]
        },
        {
            "serviceId": "S08",
            "service": "Look Special",
            "serviceContent": [
                {
                    "id": "801",
                    "name": "Wedding Special"
                },
                {
                    "id": "802",
                    "name": "Personal Grooming"
                },
                {
                    "id": "803",
                    "name": "Event and Party"
                },
                {
                    "id": "804",
                    "name": "Make up"
                },
                {
                    "id": "805",
                    "name": "Costume Stylist"
                },
                {
                    "id": "806",
                    "name": "Mehandi"
                }
            ]
        },
        {
            "serviceId": "S09",
            "service": "Soul Meets Mind",
            "serviceContent": [
                {
                    "id": "901",
                    "name": "Meditation"
                },
                {
                    "id": "902",
                    "name": "Ayurveda"
                },
                {
                    "id": "903",
                    "name": "Naturaotherapy"
                },
                {
                    "id": "904",
                    "name": "Vipasana"
                },
                {
                    "id": "905",
                    "name": "Body Spa"
                },
                {
                    "id": "906",
                    "name": "Thai Massages"
                },
                {
                    "id": "907",
                    "name": "Reiki"
                },
                {
                    "id": "908",
                    "name": "Accupressure"
                },
                {
                    "id": "909",
                    "name": "Foot Reflexology"
                }
            ]
        },
        {
            "serviceId": "S10",
            "service": "Packages",
            "serviceContent": [
                {
                    "id": "1001",
                    "name": "Packages"
                },
                {
                    "id": "1002",
                    "name": "Deals"
                },
                {
                    "id": "1003",
                    "name": "Promotions"
                }
            ]
        },
        {
            "serviceId": "S07",
            "service": "Photoshoots & Funky Looks",
            "serviceContent": [
                {
                    "id": "701",
                    "name": "Tattoo"
                },
                {
                    "id": "702",
                    "name": "Tattoo Removal"
                },
                {
                    "id": "703",
                    "name": "Piercing"
                },
                {
                    "id": "704",
                    "name": "Pre wedding Shoots"
                },
                {
                    "id": "705",
                    "name": "Portfolio"
                },
                {
                    "id": "706",
                    "name": "Pregnancy shoots"
                }
            ]
        }
    ]
}
